[gd_resource type="Resource" load_steps=4 format=2]

[ext_resource path="res://addons/virtual_keyboard/virtual_keyboard_layout.gd" type="Script" id=1]

[sub_resource type="Image" id=3]

data = {
"data": PoolByteArray( 0, 0, 0, 0, 0, 0, 0, 0, 0, 0, 0, 0, 0, 0, 0, 0, 0, 0, 0, 0, 0, 0, 0, 0, 0, 0, 0, 0, 0, 0, 0, 0, 0, 0, 0, 0, 0, 0, 0, 0, 0, 0, 0, 0, 0, 0, 0, 0, 0, 0, 0, 0, 0, 0, 0, 0, 0, 0, 0, 0, 0, 0, 0, 0, 0, 0, 0, 0, 0, 0, 0, 0, 0, 0, 0, 0, 0, 0, 0, 0, 0, 0, 0, 0, 0, 0, 0, 0, 0, 0, 0, 0, 0, 0, 0, 0, 0, 0, 0, 0, 0, 0, 0, 0, 0, 0, 0, 0, 0, 0, 0, 0, 0, 0, 0, 0, 0, 0, 0, 0, 0, 0, 0, 0, 0, 0, 0, 0, 0, 0, 0, 0, 0, 0, 0, 0, 0, 0, 0, 0, 0, 0, 0, 0, 0, 0, 0, 0, 0, 0, 0, 0, 0, 0, 0, 0, 0, 0, 0, 0, 0, 0, 0, 0, 0, 0, 0, 0, 0, 0, 0, 0, 0, 0, 0, 0, 0, 0, 0, 0, 0, 0, 0, 0, 0, 0, 0, 0, 0, 0, 0, 0, 0, 0, 0, 0, 0, 0, 0, 0, 0, 0, 0, 0, 0, 0, 0, 0, 0, 0, 0, 0, 0, 0, 0, 0, 0, 0, 0, 0, 0, 0, 0, 0, 0, 0, 0, 0, 0, 0, 0, 0, 0, 0, 0, 0, 0, 0, 0, 0, 0, 0, 0, 0, 0, 0, 0, 0, 0, 0, 0, 0, 0, 0, 0, 0, 0, 0, 0, 0, 0, 0, 0, 0, 0, 0, 0, 0, 0, 0, 0, 0, 0, 0, 0, 0, 0, 0, 0, 0, 0, 0, 0, 0, 0, 0, 0, 0, 0, 0, 0, 0, 0, 0, 0, 0, 0, 0, 0, 0, 0, 0, 0, 0, 0, 0, 0, 0, 0, 0, 0, 0, 0, 0, 0, 0, 0, 0, 0, 0, 0, 0, 0, 0, 0, 0, 0, 0, 0, 0, 0, 0, 0, 0, 0, 0, 0, 0, 0, 0, 0, 0, 0, 0, 0, 0, 0, 0, 0, 0, 0, 0, 0, 0, 0, 0, 0, 0, 0, 0, 0, 0, 0, 0, 0, 0, 0, 0, 0, 0, 0, 0, 0, 0, 0, 0, 0, 0, 0, 0, 0, 0, 0, 0, 0, 0, 0, 0, 0, 0, 0, 0, 0, 0, 0, 0, 0, 0, 0, 0, 0, 0, 0, 0, 0, 0, 0, 0, 0, 0, 0, 0, 0, 0, 0, 0, 0, 0, 0, 0, 0, 0, 0, 0, 0, 0, 0, 0, 0, 0, 0, 0, 0, 0, 0, 0, 0, 0, 0, 0, 0, 0, 0, 0, 0, 0, 0, 0, 0, 0, 0, 0, 0, 0, 0, 0, 0, 0, 0, 0, 0, 0, 0, 0, 0, 0, 0, 0, 0, 0, 0, 0, 0, 0, 0, 0, 0, 0, 0, 0, 0, 0, 0, 0, 0, 0, 0, 0, 0, 0, 0, 0, 0, 0, 0, 0, 0, 0, 0, 0, 0, 0, 0, 0, 0, 0, 0, 0, 0, 0, 0, 0, 0, 0, 0, 0, 0, 0, 0, 0, 0, 0, 0, 0, 0, 0, 0, 0, 0, 0, 0, 0, 0, 0, 0, 0, 0, 0, 0, 0, 0, 0, 0, 0, 0, 0, 0, 0, 0, 0, 0, 0, 0, 0, 0, 0, 0, 0, 0, 0, 0, 0, 0, 0, 0, 0, 0, 0, 0, 0, 0, 0, 0, 0, 0, 0, 0, 0, 0, 0, 0, 0, 0, 0, 0, 0, 0, 0, 0, 0, 0, 0, 0, 0, 0, 0, 0, 0, 0, 0, 0, 0, 0, 0, 0, 0, 0, 0, 0, 0, 0, 0, 0, 0, 0, 0, 0, 0, 0, 0, 0, 0, 0, 0, 0, 0, 0, 0, 0, 0, 0, 0, 0, 0, 0, 0, 0, 0, 0, 0, 0, 0, 0, 0, 0, 0, 0, 0, 0, 0, 0, 0, 0, 0, 0, 0, 0, 0, 0, 0, 0, 0, 0, 0, 0, 0, 0, 0, 0, 0, 0, 0, 0, 0, 0, 0, 0, 0, 0, 0, 0, 0, 0, 0, 0, 0, 0, 0, 0, 0, 0, 0, 0, 0, 0, 0, 0, 0, 0, 0, 0, 0, 0, 0, 0, 0, 0, 0, 0, 0, 0, 0, 0, 0, 0, 0, 0, 0, 0, 0, 0, 0, 0, 0, 0, 0, 0, 0, 0, 0, 0, 0, 0, 0, 0, 0, 0, 0, 0, 0, 0, 0, 0, 0, 0, 0, 0, 0, 0, 0, 0, 0, 0, 0, 0, 0, 0, 0, 0, 0, 0, 0, 0, 0, 0, 0, 0, 0, 0, 0, 0, 0, 0, 0, 0, 0, 0, 0, 0, 0, 0, 0, 0, 0, 0, 0, 0, 0, 0, 0, 0, 0, 0, 0, 0, 0, 0, 0, 0, 0, 0, 0, 0, 0, 0, 0, 0, 0, 0, 0, 0, 0, 0, 0, 0, 0, 0, 0, 0, 0, 0, 0, 0, 0, 0, 0, 0, 0, 0, 0, 0, 0, 0, 0, 0, 0, 0, 0, 0, 0, 0, 255, 0, 255, 0, 255, 0, 255, 0, 0, 0, 255, 0, 255, 0, 255, 0, 0, 0, 0, 0, 255, 0, 255, 0, 255, 0, 0, 0, 0, 0, 0, 0, 255, 0, 255, 0, 0, 0, 0, 0, 255, 0, 255, 0, 255, 0, 0, 0, 0, 0, 0, 0, 0, 0, 0, 0, 0, 0, 0, 0, 0, 0, 0, 0, 255, 0, 0, 0, 0, 0, 0, 0, 0, 0, 255, 0, 0, 0, 0, 0, 255, 0, 0, 0, 255, 0, 0, 0, 0, 0, 255, 0, 0, 0, 255, 0, 0, 0, 0, 0, 255, 0, 0, 0, 255, 0, 0, 0, 0, 0, 255, 0, 0, 0, 0, 0, 0, 0, 0, 0, 0, 0, 0, 0, 0, 0, 0, 0, 255, 0, 0, 0, 0, 0, 0, 0, 0, 0, 255, 0, 0, 0, 0, 0, 255, 0, 0, 0, 255, 0, 0, 0, 0, 0, 255, 0, 0, 0, 255, 0, 0, 0, 0, 0, 255, 0, 0, 0, 255, 0, 0, 0, 0, 0, 255, 0, 0, 0, 0, 0, 0, 0, 0, 0, 0, 0, 0, 0, 0, 0, 0, 0, 255, 0, 255, 0, 255, 0, 0, 0, 0, 0, 255, 0, 255, 0, 255, 0, 0, 0, 0, 0, 255, 0, 255, 0, 255, 0, 0, 0, 0, 0, 255, 0, 0, 0, 0, 0, 255, 0, 0, 0, 255, 0, 255, 0, 255, 0, 0, 0, 0, 0, 0, 0, 0, 0, 0, 0, 0, 0, 0, 0, 0, 0, 0, 0, 255, 0, 0, 0, 0, 0, 0, 0, 0, 0, 255, 0, 0, 0, 0, 0, 255, 0, 0, 0, 255, 0, 0, 0, 0, 0, 255, 0, 0, 0, 255, 0, 0, 0, 0, 0, 255, 0, 0, 0, 255, 0, 0, 0, 0, 0, 255, 0, 0, 0, 0, 0, 0, 0, 0, 0, 0, 0, 0, 0, 0, 0, 0, 0, 255, 0, 0, 0, 0, 0, 0, 0, 0, 0, 255, 0, 0, 0, 0, 0, 255, 0, 0, 0, 255, 0, 0, 0, 0, 0, 255, 0, 0, 0, 255, 0, 0, 0, 0, 0, 255, 0, 0, 0, 255, 0, 0, 0, 0, 0, 255, 0, 0, 0, 0, 0, 0, 0, 0, 0, 0, 0, 0, 0, 0, 0, 0, 0, 255, 0, 255, 0, 255, 0, 255, 0, 0, 0, 255, 0, 0, 0, 0, 0, 255, 0, 0, 0, 255, 0, 0, 0, 0, 0, 255, 0, 0, 0, 0, 0, 255, 0, 255, 0, 0, 0, 0, 0, 255, 0, 0, 0, 0, 0, 255, 0, 0, 0, 0, 0, 0, 0, 0, 0, 0, 0, 0, 0, 0, 0, 0, 0, 0, 0, 0, 0, 0, 0, 0, 0, 0, 0, 0, 0, 0, 0, 0, 0, 0, 0, 0, 0, 0, 0, 0, 0, 0, 0, 0, 0, 0, 0, 0, 0, 0, 0, 0, 0, 0, 0, 0, 0, 0, 0, 0, 0, 0, 0, 0, 0, 0, 0, 0, 0, 0, 0, 0, 0, 0, 0, 0, 0, 0, 0, 0, 0, 0, 0, 0, 0, 0, 0, 0, 0, 0, 0, 0, 0, 0, 0, 0, 0, 0, 0, 0, 0, 0, 0, 0, 0, 0, 0, 0, 0, 0, 0, 0, 0, 0, 0, 0, 0, 0, 0, 0, 0, 0, 0, 0, 0, 0, 0, 0, 0, 0, 0, 0, 0, 0, 0, 0, 0, 0, 0, 0, 0, 0, 0, 0, 0, 0, 0, 0, 0, 0, 0, 0, 0, 0, 0, 0, 0, 0, 0, 0, 0, 0, 0, 0, 0, 0, 0, 0, 0, 0, 0, 0, 0, 0, 0, 0, 0, 0, 0, 0, 0, 0, 0, 0, 0, 0, 0, 0, 0, 0, 0, 0, 0, 0, 0, 0, 0, 0, 0, 0, 0, 0, 0, 0, 0, 0, 0, 0, 0, 0, 0, 0, 0, 0, 0, 0, 0, 0, 0, 0, 0, 0, 0, 0, 0, 0, 0, 0, 0, 0, 0, 0, 0, 0, 0, 0, 0, 0, 0, 0, 0, 0, 0, 0, 0, 0, 0, 0, 0, 0, 0, 0, 0, 0, 0, 0, 0, 0, 0, 0, 0, 0, 0, 0, 0, 0, 0, 0, 0, 0, 0, 0, 0, 0, 0, 0, 0, 0, 0, 0, 0, 0, 0, 0, 0, 0, 0, 0, 0, 0, 0, 0, 0, 0, 0, 0, 0, 0, 0, 0, 0, 0, 0, 0, 0, 0, 0, 0, 0, 0, 0, 0, 0, 0, 0, 0, 0, 0, 0, 0, 0, 0, 0, 0, 0, 0, 0, 0, 0, 0, 0, 0, 0, 0, 0, 0, 0, 0, 0, 0, 0, 0, 0, 0, 0, 0, 0, 0, 0, 0, 0, 0, 0, 0, 0, 0, 0, 0, 0, 0, 0, 0, 0, 0, 0, 0, 0, 0, 0, 0, 0, 0, 0, 0, 0, 0, 0, 0, 0, 0, 0, 0, 0, 0, 0, 0, 0, 0, 0, 0, 0, 0, 0, 0, 0, 0, 0, 0, 0, 0, 0, 0, 0, 0, 0, 0, 0, 0, 0, 0, 0, 0, 0, 0, 0, 0, 0, 0, 0, 0, 0, 0, 0, 0, 0, 0, 0, 0, 0, 0, 0, 0, 0, 0, 0, 0, 0, 0, 0, 0, 0, 0, 0, 0, 0, 0, 0, 0, 0, 0, 0, 0, 0, 0, 0, 0, 0, 0, 0, 0, 0, 0, 0, 0, 0, 0, 0, 0, 0, 0, 0, 0, 0, 0, 0, 0, 0, 0, 0, 0, 0, 0, 0, 0, 0, 0, 0, 0, 0, 0, 0, 0, 0, 0, 0, 0, 0, 0, 0, 0, 0, 0, 0, 0, 0, 0, 0, 0, 0, 0, 0, 0, 0, 0, 0, 0, 0, 0, 0, 0, 0, 0, 0, 0, 0, 0, 0, 0, 0, 0, 0, 0, 0, 0, 0, 0, 0, 0, 0, 0, 0, 0, 0, 0, 0, 0, 0, 0, 0, 0, 0, 0, 0, 0, 0, 0, 0, 0, 0, 0, 0, 0, 0, 0, 0, 0, 0, 0, 0, 0, 0, 0, 0, 0, 0, 0, 0, 0, 0, 0, 0, 0, 0, 0, 0, 0, 0, 0, 0, 0, 0, 0, 0, 0, 0, 0, 0, 0, 0, 0, 0, 0, 0, 0, 0, 0, 0, 0, 0, 0, 0, 0, 0, 0, 0, 0, 0, 0, 0, 0, 0, 0, 0, 0, 0, 0, 0, 0, 0, 0, 0, 0, 0, 0, 0, 0, 0, 0, 0, 0, 0, 0, 0, 0, 0, 0, 0, 0, 0, 0, 0, 0, 0, 0, 0, 0, 0, 0, 0, 0, 0, 0, 0, 0, 0, 0, 0, 0, 0, 0, 0, 0, 0, 0, 0, 0, 0, 0, 0, 0, 0, 0, 0, 0, 0, 0, 0, 0, 0, 0, 0, 0, 0, 0, 0, 0, 0, 0, 0, 0, 0, 0, 0, 0, 0, 0, 0, 0, 0, 0, 0, 0, 0, 0, 0, 0, 0, 0, 0, 0, 0, 0, 0, 0, 0, 0, 0, 0, 0, 0, 0, 0, 0, 0, 0, 0, 0, 0, 0, 0, 0, 0, 0, 0, 0, 0, 0, 0, 0, 0, 0, 0, 0, 0, 0, 0, 0, 0, 0, 0, 0, 0, 0, 0, 0, 0, 0, 0, 0, 0, 0, 0, 0, 0, 0, 0 ),
"format": "LumAlpha8",
"height": 32,
"mipmaps": false,
"width": 32
}

[sub_resource type="ImageTexture" id=2]

flags = 4
storage = 0
lossy_quality = 0.7
flags = 4
image = null
size = Vector2( 32, 32 )

[resource]

script = ExtResource( 1 )
_sections_unfolded = [ "0", "1", "10", "11", "2", "3", "4", "5", "6", "7", "8", "9", "Buttons", "Resource", "Rows" ]
__meta__ = {
"_editor_icon": SubResource( 2 )
}
row_count = 4
rows/0/button_count = 11
rows/0/buttons/0/button_type = 0
rows/0/buttons/0/expand = false
rows/0/buttons/0/input_string = "q"
rows/0/buttons/0/shift_input_string = "Q"
rows/0/buttons/1/button_type = 0
rows/0/buttons/1/expand = false
rows/0/buttons/1/input_string = "w"
rows/0/buttons/1/shift_input_string = "W"
rows/0/buttons/2/button_type = 0
rows/0/buttons/2/expand = false
rows/0/buttons/2/input_string = "e"
rows/0/buttons/2/shift_input_string = "E"
rows/0/buttons/3/button_type = 0
rows/0/buttons/3/expand = false
rows/0/buttons/3/input_string = "r"
rows/0/buttons/3/shift_input_string = "R"
rows/0/buttons/4/button_type = 0
rows/0/buttons/4/expand = false
rows/0/buttons/4/input_string = "t"
rows/0/buttons/4/shift_input_string = "T"
rows/0/buttons/5/button_type = 0
rows/0/buttons/5/expand = false
rows/0/buttons/5/input_string = "y"
rows/0/buttons/5/shift_input_string = "Y"
rows/0/buttons/6/button_type = 0
rows/0/buttons/6/expand = false
rows/0/buttons/6/input_string = "u"
rows/0/buttons/6/shift_input_string = "U"
rows/0/buttons/7/button_type = 0
rows/0/buttons/7/expand = false
rows/0/buttons/7/input_string = "i"
rows/0/buttons/7/shift_input_string = "I"
rows/0/buttons/8/button_type = 0
rows/0/buttons/8/expand = false
rows/0/buttons/8/input_string = "o"
rows/0/buttons/8/shift_input_string = "O"
rows/0/buttons/9/button_type = 0
rows/0/buttons/9/expand = false
rows/0/buttons/9/input_string = "p"
rows/0/buttons/9/shift_input_string = "P"
rows/0/buttons/10/button_type = 2
rows/0/buttons/10/expand = true
rows/0/buttons/10/input_string = "Backspace"
rows/0/buttons/10/shift_input_string = "Backspace"
rows/1/button_count = 12
rows/1/buttons/0/button_type = 0
rows/1/buttons/0/expand = false
rows/1/buttons/0/input_string = "a"
rows/1/buttons/0/shift_input_string = "A"
rows/1/buttons/1/button_type = 0
rows/1/buttons/1/expand = false
rows/1/buttons/1/input_string = "s"
rows/1/buttons/1/shift_input_string = "S"
rows/1/buttons/2/button_type = 0
rows/1/buttons/2/expand = false
rows/1/buttons/2/input_string = "d"
rows/1/buttons/2/shift_input_string = "D"
rows/1/buttons/3/button_type = 0
rows/1/buttons/3/expand = false
rows/1/buttons/3/input_string = "f"
rows/1/buttons/3/shift_input_string = "F"
rows/1/buttons/4/button_type = 0
rows/1/buttons/4/expand = false
rows/1/buttons/4/input_string = "g"
rows/1/buttons/4/shift_input_string = "G"
rows/1/buttons/5/button_type = 0
rows/1/buttons/5/expand = false
rows/1/buttons/5/input_string = "h"
rows/1/buttons/5/shift_input_string = "H"
rows/1/buttons/6/button_type = 0
rows/1/buttons/6/expand = false
rows/1/buttons/6/input_string = "j"
rows/1/buttons/6/shift_input_string = "J"
rows/1/buttons/7/button_type = 0
rows/1/buttons/7/expand = false
rows/1/buttons/7/input_string = "k"
rows/1/buttons/7/shift_input_string = "K"
rows/1/buttons/8/button_type = 0
rows/1/buttons/8/expand = false
rows/1/buttons/8/input_string = "l"
rows/1/buttons/8/shift_input_string = "L"
rows/1/buttons/9/button_type = 0
rows/1/buttons/9/expand = false
rows/1/buttons/9/input_string = ";"
rows/1/buttons/9/shift_input_string = ":"
rows/1/buttons/10/button_type = 0
rows/1/buttons/10/expand = false
rows/1/buttons/10/input_string = "'"
rows/1/buttons/10/shift_input_string = "@"
rows/1/buttons/11/button_type = 3
rows/1/buttons/11/expand = true
rows/1/buttons/11/input_string = "Enter"
rows/1/buttons/11/shift_input_string = "Enter"
rows/2/button_count = 12
rows/2/buttons/0/button_type = 1
rows/2/buttons/0/expand = true
rows/2/buttons/0/input_string = "Shift"
rows/2/buttons/0/shift_input_string = "Shift"
rows/2/buttons/1/button_type = 0
rows/2/buttons/1/expand = false
rows/2/buttons/1/input_string = "z"
rows/2/buttons/1/shift_input_string = "Z"
rows/2/buttons/2/button_type = 0
rows/2/buttons/2/expand = false
rows/2/buttons/2/input_string = "x"
rows/2/buttons/2/shift_input_string = "X"
rows/2/buttons/3/button_type = 0
rows/2/buttons/3/expand = false
rows/2/buttons/3/input_string = "c"
rows/2/buttons/3/shift_input_string = "C"
rows/2/buttons/4/button_type = 0
rows/2/buttons/4/expand = false
rows/2/buttons/4/input_string = "v"
rows/2/buttons/4/shift_input_string = "V"
rows/2/buttons/5/button_type = 0
rows/2/buttons/5/expand = false
rows/2/buttons/5/input_string = "b"
rows/2/buttons/5/shift_input_string = "B"
rows/2/buttons/6/button_type = 0
rows/2/buttons/6/expand = false
rows/2/buttons/6/input_string = "n"
rows/2/buttons/6/shift_input_string = "N"
rows/2/buttons/7/button_type = 0
rows/2/buttons/7/expand = false
rows/2/buttons/7/input_string = "m"
rows/2/buttons/7/shift_input_string = "M"
rows/2/buttons/8/button_type = 0
rows/2/buttons/8/expand = false
rows/2/buttons/8/input_string = ","
rows/2/buttons/8/shift_input_string = ","
rows/2/buttons/9/button_type = 0
rows/2/buttons/9/expand = false
rows/2/buttons/9/input_string = "."
rows/2/buttons/9/shift_input_string = "."
rows/2/buttons/10/button_type = 0
rows/2/buttons/10/expand = false
rows/2/buttons/10/input_string = "?"
rows/2/buttons/10/shift_input_string = "?"
rows/2/buttons/11/button_type = 1
rows/2/buttons/11/expand = true
rows/2/buttons/11/input_string = "Shift"
rows/2/buttons/11/shift_input_string = "Shift"
rows/3/button_count = 4
rows/3/buttons/0/button_type = 0
rows/3/buttons/0/expand = false
rows/3/buttons/0/input_string = "&123"
rows/3/buttons/0/shift_input_string = "&123"
rows/3/buttons/1/button_type = 0
rows/3/buttons/1/expand = true
rows/3/buttons/1/input_string = " "
rows/3/buttons/1/shift_input_string = " "
rows/3/buttons/2/button_type = 0
rows/3/buttons/2/expand = false
rows/3/buttons/2/input_string = "<"
rows/3/buttons/2/shift_input_string = "<"
rows/3/buttons/3/button_type = 0
rows/3/buttons/3/expand = false
rows/3/buttons/3/input_string = ">"
rows/3/buttons/3/shift_input_string = ">"

